<?xml version="1.0" encoding="utf-8"?>
<!-- Generator: Adobe Illustrator 16.0.0, SVG Export Plug-In . SVG Version: 6.00 Build 0)  -->
<!DOCTYPE svg PUBLIC "-//W3C//DTD SVG 1.1//EN" "http://www.w3.org/Graphics/SVG/1.1/DTD/svg11.dtd">
<svg version="1.1" id="Layer_1" xmlns="http://www.w3.org/2000/svg" xmlns:xlink="http://www.w3.org/1999/xlink" x="0px" y="0px"
	 width="248.99px" height="126.99px" viewBox="0 0 248.99 126.99" enable-background="new 0 0 248.99 126.99" xml:space="preserve">
<g opacity="0.05">
	<g>
		<path fill-rule="evenodd" clip-rule="evenodd" fill="#010202" d="M210.512,75.608l-0.666-0.658l-28.229,27.889l-16.03-15.838
			L153.39,74.95l-12.198,12.051l0,0l-16.031,15.838L109.13,87.001l0,0L96.932,74.95L84.734,87.001l-16.03,15.838L52.673,87.001
			L40.476,74.95L28.277,87.001l0,0L0,114.939l12.198,12.051l28.277-27.938l16.03,15.838l-0.049,0.049l12.198,12.051l0.049-0.048
			l0.049,0.048l12.198-12.051l-0.049-0.049l16.031-15.838l16.03,15.838l-0.049,0.049l12.199,12.051l0.049-0.048l0.049,0.048
			l12.198-12.051l-0.049-0.049l16.03-15.838l16.031,15.838l-0.05,0.049l12.198,12.051l0.049-0.049l0.049,0.049l12.197-12.051
			l-0.049-0.049l16.305-16.108l26.672,28.208l12.198-12.051L211.178,74.95L210.512,75.608z M210.512,38.134l-0.666-0.658
			l-28.229,27.889L153.39,37.476l-12.198,12.051l-16.03,15.838L109.13,49.526h0L96.932,37.476L84.734,49.526l-16.03,15.838
			L52.673,49.526L40.476,37.476L28.277,49.526l0,0L0,77.464l12.198,12.051l28.277-27.937l16.03,15.837l-0.049,0.049l12.198,12.051
			l0.049-0.048l0.049,0.048l12.198-12.051l-0.049-0.049l16.031-15.837l16.03,15.837l-0.049,0.049l12.199,12.051l0.049-0.048
			l0.049,0.048l12.198-12.051l-0.049-0.049l16.03-15.838l16.031,15.838l-0.05,0.049l12.198,12.051l0.049-0.049l0.049,0.049
			l12.197-12.051l-0.049-0.048l16.305-16.108l26.672,28.208l12.198-12.051l-37.813-39.988L210.512,38.134z M12.198,52.039
			l28.277-27.937l16.03,15.837l-0.049,0.049l12.198,12.051l0.049-0.048l0.049,0.048l12.198-12.051l-0.049-0.049l16.031-15.837
			l16.03,15.837l-0.049,0.049l12.199,12.051l0.049-0.048l0.049,0.048l12.198-12.051l-0.049-0.049l16.03-15.838l16.031,15.838
			l-0.05,0.049l12.198,12.051l0.049-0.049l0.049,0.049l12.197-12.051l-0.049-0.048l16.305-16.108l26.672,28.208l12.198-12.051
			L211.178,0l-0.666,0.658L209.846,0l-28.229,27.889L153.39,0l-12.198,12.051l-16.03,15.838L109.13,12.051h0L96.932,0L84.734,12.051
			l-16.03,15.838L52.673,12.051L40.476,0L28.277,12.051l0,0L0,39.988L12.198,52.039z"/>
	</g>
</g>
</svg>
